{
  "menus": [
    {

      "section": "MENU PRINCIPAL",
      "items": [

        {
          "title": "Tableau de bord",
           "id": "home",
          "url": "\/admin\/",
          "icone": "ti-dashboard"
        }

      ]
    },
    {
      "section": "Produits",
      "items": [

       
       
      {
        "title": "Gestion du contenu",
         "id": "contenu",
        "url": "\/admin\/contenu-page",
        "icone": "ti-file"
      }
      ,
      {
        "title": "Communiqué",
        "id": "comm",
        "url": "\/admin\/communique",
        "icone": "ti-flag"
        },
        {
        "title": "Actualités",
         "id": "actu",
        "url": "\/admin\/actualite",
        "icone": "ti-rss-alt"
      },
      {
      "title": "Brèves",
      "id": "breve",
      "url": "\/admin\/breve",
      "icone": "ti-pulse"
      },
      {
        "title": "Prestation de services ",
        "id": "prestation",
        "url": "\/admin\/prestation",
        "icone": "ti-target"
      },
      
      {
        "title": "Passation des marchés ",
        "id": "passation",
        "url": "\/admin\/passation-marche",
        "icone": "ti-shopping-cart-full"
      },
      {
        "title": "Equipe de direction ",
        "id": "membre",
        "url": "\/admin\/membre",
        "icone": "ti-user"
      },
      {
        "title": "Carrousels",
        "id": "carousel",
        "url": "\/admin\/carrousel",
        "icone": "ti-harddrives"
      },{
        "title": "Galerie images",
         "id": "image",
        "url": "\/admin\/galerie-image",
        "icone": "ti-image"
      }
      ,{
        "title": "Galerie vidéos",
         "id": "video",
        "url": "\/admin\/galerie-video",
        "icone": "ti-video-clapper"
      },{
        "title": "Messages",
         "id": "message",
        "url": "\/admin\/message",
        "icone": "ti-comment"
      },{
        "title": "Ressources",
         "id": "res",
        "url": "\/admin\/ressource",
        "icone": "ti-folder"
      }

      ]
    },{
      "section": "Paramètres",
      "items": [
        
        {
        "title": "Catégorie",
         "id": "cat",
        "url": "\/admin\/categorie",
        "icone": "ti-menu-alt"
        },

        {
          "title": "Utilisateurs",
           "id": "users",
          "url": "\/admin\/users",
          "icone": "ti-user"
        }

      ]
    }
  ]
}
